the...........................571
of............................362
a.............................247
to............................216
and...........................208
in............................168
is............................143
it............................126
be............................114
There are 9 words with frequency > 100

the...........................571
of............................362
a.............................247
to............................216
and...........................208
in............................168
is............................143
it............................126
be............................114
for...........................93
by............................80
he............................67
his...........................65
which.........................65
are...........................61
on............................56
that..........................55
as............................54
with..........................53
There are 19 words with frequency > 50

the...........................571
of............................362
a.............................247
to............................216
and...........................208
in............................168
is............................143
it............................126
be............................114
for...........................93
by............................80
he............................67
his...........................65
which.........................65
are...........................61
on............................56
that..........................55
as............................54
with..........................53
at............................47
one...........................46
have..........................44
can...........................42
not...........................42
an............................41
has...........................41
this..........................40
they..........................37
will..........................37
record........................36
may...........................33
there.........................32
but...........................31
from..........................30
all...........................29
we............................29
if............................28
been..........................26
or............................26
into..........................25
its...........................24
use...........................24
when..........................24
now...........................23
machine.......................22
so............................22
would.........................22
could.........................21
than..........................21
more..........................19
only..........................19
their.........................19
process.......................18
these.........................18
time..........................18
even..........................17
him...........................17
trail.........................17
form..........................16
machines......................16
picture.......................16
such..........................16
selection.....................15
them..........................15
film..........................14
new...........................14
present.......................14
thus..........................14
who...........................14
electrical....................13
items.........................13
made..........................13
much..........................13
then..........................13
through.......................13
another.......................12
item..........................12
man...........................12
material......................12
needs.........................12
out...........................12
some..........................12
two...........................12
up............................12
any...........................11
data..........................11
future........................11
however.......................11
memex.........................11
photography...................11
rather........................11
trails........................11
yet...........................11
There are 93 words with frequency > 10

